{
    "state": 100,
    "message": "操作成功!",
    "data": {
        "total": 5060,
        "pageNumber": 1,
        "totalPages": 506,
        "pageSize": 10,
        "lawCaseList": [
            {
                "netApplicationNo": "(2020)闽0203网申849号",
                "procedureType": null,
                "approvalDate": null,
                "filingDate": null,
                "endTrialDate": null,
                "receiceDate": 1591872285000,
                "diplomsPath": null,
                "peopleassessorName": "",
                "yLCaseNo": null,
                "workComplaintNum": null,
                "newly": null,
                "flowNumber": "20200611184451156001",
                "plaintiffName": "中国平安财产保险股份有限公司厦门分公司",
                "briefType": "1",
                "mediateName": "",
                "courtName": "厦门金融协同中心",
                "mediationDate": null,
                "eviUp": false,
                "tribunalName": null,
                "mediation": null,
                "defendantLawyerName": "",
                "applyStandard": 456889.00,
                "clerkName": "",
                "daynum": null,
                "createDate": 1591872285000,
                "courtId": "6",
                "approver": null,
                "mediationprocess": null,
                "briefName": "金融借款合同纠纷",
                "judgeName": "",
                "closeType": null,
                "trustComplaintNum": null,
                "caseNo": null,
                "applicant": "林明聪",
                "defendantName": "张三",
                "closeDate": null,
                "exportInfo": null,
                "lawCaseType": 1,
                "proUp": false,
                "assistName": "",
                "progress": "立案申请",
                "lawCaseId": "ff80808172a2bf9c0172a2fb6a6e0027",
                "startDate": null,
                "plaintiffLawyerName": "林明聪,郑建腾"
            },
            {
                "netApplicationNo": "(2020)闽0203网申848号",
                "procedureType": null,
                "approvalDate": null,
                "filingDate": null,
                "endTrialDate": null,
                "receiceDate": 1591859799000,
                "diplomsPath": null,
                "peopleassessorName": "",
                "yLCaseNo": null,
                "workComplaintNum": null,
                "newly": null,
                "flowNumber": "20200611172016656001",
                "plaintiffName": "廖富山",
                "briefType": "5",
                "mediateName": "",
                "courtName": "厦门金融协同中心",
                "mediationDate": null,
                "eviUp": false,
                "tribunalName": null,
                "mediation": null,
                "defendantLawyerName": "",
                "applyStandard": 62512.00,
                "clerkName": "",
                "daynum": null,
                "createDate": 1591859799000,
                "courtId": "6",
                "approver": null,
                "mediationprocess": null,
                "briefName": "保险人代位求偿权纠纷",
                "judgeName": "",
                "closeType": null,
                "trustComplaintNum": null,
                "caseNo": null,
                "applicant": "林明聪",
                "defendantName": "甘秋白",
                "closeDate": null,
                "exportInfo": null,
                "lawCaseType": 5,
                "proUp": false,
                "assistName": "",
                "progress": "立案申请",
                "lawCaseId": "4028d7fe72a179fa0172a23ce5b20031",
                "startDate": null,
                "plaintiffLawyerName": "林明聪"
            },
            {
                "netApplicationNo": "(2020)闽0203网申846号",
                "procedureType": null,
                "approvalDate": null,
                "filingDate": null,
                "endTrialDate": null,
                "receiceDate": 1591842840000,
                "diplomsPath": null,
                "peopleassessorName": "",
                "yLCaseNo": null,
                "workComplaintNum": null,
                "newly": null,
                "flowNumber": "20200611103400568001",
                "plaintiffName": "下",
                "briefType": "1",
                "mediateName": "",
                "courtName": "厦门金融协同中心",
                "mediationDate": null,
                "eviUp": false,
                "tribunalName": null,
                "mediation": null,
                "defendantLawyerName": "",
                "applyStandard": 1.00,
                "clerkName": "",
                "daynum": null,
                "createDate": 1591842840000,
                "courtId": "6",
                "approver": null,
                "mediationprocess": null,
                "briefName": "金融借款合同纠纷",
                "judgeName": "",
                "closeType": null,
                "trustComplaintNum": null,
                "caseNo": null,
                "applicant": "曾四莲",
                "defendantName": "先",
                "closeDate": null,
                "exportInfo": null,
                "lawCaseType": 1,
                "proUp": false,
                "assistName": "",
                "progress": "立案申请",
                "lawCaseId": "ff80808172a131820172a13a1be90043",
                "startDate": null,
                "plaintiffLawyerName": "下"
            },
            {
                "netApplicationNo": "(2020)闽0203网申845号",
                "procedureType": null,
                "approvalDate": null,
                "filingDate": null,
                "endTrialDate": null,
                "receiceDate": 1591842522000,
                "diplomsPath": null,
                "peopleassessorName": "",
                "yLCaseNo": null,
                "workComplaintNum": null,
                "newly": null,
                "flowNumber": "20200611102849796001",
                "plaintiffName": "下",
                "briefType": "1",
                "mediateName": "",
                "courtName": "厦门金融协同中心",
                "mediationDate": null,
                "eviUp": false,
                "tribunalName": null,
                "mediation": null,
                "defendantLawyerName": "",
                "applyStandard": 1.00,
                "clerkName": "",
                "daynum": null,
                "createDate": 1591842522000,
                "courtId": "6",
                "approver": null,
                "mediationprocess": null,
                "briefName": "金融借款合同纠纷",
                "judgeName": "",
                "closeType": null,
                "trustComplaintNum": null,
                "caseNo": null,
                "applicant": "曾四莲",
                "defendantName": "的",
                "closeDate": null,
                "exportInfo": null,
                "lawCaseType": 1,
                "proUp": false,
                "assistName": "",
                "progress": "立案申请",
                "lawCaseId": "ff80808172a131820172a135456a0013",
                "startDate": null,
                "plaintiffLawyerName": "到底"
            },
            {
                "netApplicationNo": "(2020)闽0203网申843号",
                "procedureType": null,
                "approvalDate": null,
                "filingDate": null,
                "endTrialDate": null,
                "receiceDate": 1591840901000,
                "diplomsPath": null,
                "peopleassessorName": "",
                "yLCaseNo": null,
                "workComplaintNum": null,
                "newly": null,
                "flowNumber": "20200611100142221001",
                "plaintiffName": "廖富山",
                "briefType": "10",
                "mediateName": "",
                "courtName": "厦门金融协同中心",
                "mediationDate": null,
                "eviUp": false,
                "tribunalName": null,
                "mediation": null,
                "defendantLawyerName": "",
                "applyStandard": 54120.00,
                "clerkName": "",
                "daynum": null,
                "createDate": 1591840901000,
                "courtId": "6",
                "approver": null,
                "mediationprocess": null,
                "briefName": "追偿权纠纷",
                "judgeName": "",
                "closeType": null,
                "trustComplaintNum": null,
                "caseNo": "1",
                "applicant": "林明聪",
                "defendantName": "贺越越",
                "closeDate": null,
                "exportInfo": null,
                "lawCaseType": 10,
                "proUp": false,
                "assistName": "",
                "progress": "立案申请",
                "lawCaseId": "ff80808172a116ba0172a11c88f70022",
                "startDate": null,
                "plaintiffLawyerName": "林明聪"
            },
            {
                "netApplicationNo": "(2020)闽0203网申841号",
                "procedureType": null,
                "approvalDate": null,
                "filingDate": null,
                "endTrialDate": null,
                "receiceDate": 1591840696000,
                "diplomsPath": null,
                "peopleassessorName": "",
                "yLCaseNo": null,
                "workComplaintNum": null,
                "newly": null,
                "flowNumber": "20200611095821777001",
                "plaintiffName": "郑建腾",
                "briefType": "3",
                "mediateName": "",
                "courtName": "厦门金融协同中心",
                "mediationDate": null,
                "eviUp": false,
                "tribunalName": null,
                "mediation": null,
                "defendantLawyerName": "",
                "applyStandard": 2100.00,
                "clerkName": "",
                "daynum": null,
                "createDate": 1591840696000,
                "courtId": "6",
                "approver": null,
                "mediationprocess": null,
                "briefName": "信用卡纠纷",
                "judgeName": "",
                "closeType": null,
                "trustComplaintNum": null,
                "caseNo": null,
                "applicant": "林明聪",
                "defendantName": "张泽楷",
                "closeDate": null,
                "exportInfo": null,
                "lawCaseType": 3,
                "proUp": false,
                "assistName": "",
                "progress": "立案申请",
                "lawCaseId": "ff80808172a116ba0172a11967540002",
                "startDate": null,
                "plaintiffLawyerName": "林明聪"
            },
            {
                "netApplicationNo": "(2020)闽0203网申840号",
                "procedureType": null,
                "approvalDate": null,
                "filingDate": null,
                "endTrialDate": null,
                "receiceDate": 1591838069000,
                "diplomsPath": null,
                "peopleassessorName": "",
                "yLCaseNo": null,
                "workComplaintNum": null,
                "newly": null,
                "flowNumber": "20200611091429209001",
                "plaintiffName": "里",
                "briefType": "1",
                "mediateName": "",
                "courtName": "厦门金融协同中心",
                "mediationDate": null,
                "eviUp": false,
                "tribunalName": null,
                "mediation": null,
                "defendantLawyerName": "",
                "applyStandard": 1.00,
                "clerkName": "",
                "daynum": null,
                "createDate": 1591838069000,
                "courtId": "6",
                "approver": null,
                "mediationprocess": null,
                "briefName": "金融借款合同纠纷",
                "judgeName": "",
                "closeType": null,
                "trustComplaintNum": null,
                "caseNo": null,
                "applicant": "曾四莲",
                "defendantName": "第三方",
                "closeDate": null,
                "exportInfo": null,
                "lawCaseType": 1,
                "proUp": false,
                "assistName": "",
                "progress": "立案申请",
                "lawCaseId": "ff80808172a0d4020172a0f151ba0011",
                "startDate": null,
                "plaintiffLawyerName": ""
            },
            {
                "netApplicationNo": "(2020)闽0203网申835号",
                "procedureType": null,
                "approvalDate": null,
                "filingDate": null,
                "endTrialDate": null,
                "receiceDate": 1591779529000,
                "diplomsPath": null,
                "peopleassessorName": "",
                "yLCaseNo": null,
                "workComplaintNum": null,
                "newly": null,
                "flowNumber": "20200610170238003001",
                "plaintiffName": "廖富山",
                "briefType": "3",
                "mediateName": "",
                "courtName": "厦门金融协同中心",
                "mediationDate": null,
                "eviUp": false,
                "tribunalName": null,
                "mediation": null,
                "defendantLawyerName": "",
                "applyStandard": 3210.00,
                "clerkName": "",
                "daynum": null,
                "createDate": 1591779529000,
                "courtId": "6",
                "approver": null,
                "mediationprocess": null,
                "briefName": "信用卡纠纷",
                "judgeName": "",
                "closeType": null,
                "trustComplaintNum": null,
                "caseNo": null,
                "applicant": "林明聪",
                "defendantName": "汤娴",
                "closeDate": null,
                "exportInfo": null,
                "lawCaseType": 3,
                "proUp": false,
                "assistName": "",
                "progress": "立案申请",
                "lawCaseId": "ff808081729d6bca01729d7411280060",
                "startDate": null,
                "plaintiffLawyerName": "林明聪"
            },
            {
                "netApplicationNo": "(2020)闽0203网申834号",
                "procedureType": null,
                "approvalDate": null,
                "filingDate": null,
                "endTrialDate": null,
                "receiceDate": 1591779697000,
                "diplomsPath": null,
                "peopleassessorName": "",
                "yLCaseNo": null,
                "workComplaintNum": null,
                "newly": null,
                "flowNumber": "20200610170137855001",
                "plaintiffName": "中国平安财产保险股份有限公司厦门分公司,李四",
                "briefType": "1",
                "mediateName": "",
                "courtName": "厦门金融协同中心",
                "mediationDate": null,
                "eviUp": false,
                "tribunalName": null,
                "mediation": null,
                "defendantLawyerName": "",
                "applyStandard": 456889.00,
                "clerkName": "",
                "daynum": null,
                "createDate": 1591779697000,
                "courtId": "6",
                "approver": null,
                "mediationprocess": null,
                "briefName": "金融借款合同纠纷",
                "judgeName": "",
                "closeType": null,
                "trustComplaintNum": null,
                "caseNo": null,
                "applicant": "林明聪",
                "defendantName": "张三,广寒宫",
                "closeDate": null,
                "exportInfo": null,
                "lawCaseType": 1,
                "proUp": false,
                "assistName": "",
                "progress": "立案申请",
                "lawCaseId": "ff808081729d6bca01729d76a0490072",
                "startDate": null,
                "plaintiffLawyerName": "林明聪,郑建腾"
            },
            {
                "netApplicationNo": "(2020)闽0203网申831号",
                "procedureType": null,
                "approvalDate": null,
                "filingDate": null,
                "endTrialDate": null,
                "receiceDate": 1591779166000,
                "diplomsPath": null,
                "peopleassessorName": "",
                "yLCaseNo": null,
                "workComplaintNum": null,
                "newly": null,
                "flowNumber": "20200610165710638001",
                "plaintiffName": "廖富山",
                "briefType": "1",
                "mediateName": "",
                "courtName": "厦门金融协同中心",
                "mediationDate": null,
                "eviUp": false,
                "tribunalName": null,
                "mediation": null,
                "defendantLawyerName": "",
                "applyStandard": 2100.00,
                "clerkName": "",
                "daynum": null,
                "createDate": 1591779166000,
                "courtId": "6",
                "approver": null,
                "mediationprocess": null,
                "briefName": "金融借款合同纠纷",
                "judgeName": "",
                "closeType": null,
                "trustComplaintNum": null,
                "caseNo": null,
                "applicant": "林明聪",
                "defendantName": "欧阳海师",
                "closeDate": null,
                "exportInfo": null,
                "lawCaseType": 1,
                "proUp": false,
                "assistName": "",
                "progress": "立案申请",
                "lawCaseId": "ff808081729d6bca01729d6e85e7002d",
                "startDate": null,
                "plaintiffLawyerName": "林明聪"
            }
        ]
    }
}